{
  "global" : false,
  "icon" : "@hubspot/boilerplate/images/module-icons/table.svg",
  "host_template_types" : [ "PAGE" ],
  "module_id" : 87559359094,
  "label" : "Pricing card",
  "is_available_for_new_content" : true
}