[ {
  "id" : "e223b22a-935e-ef4e-b7b5-babacaa5de01",
  "name" : "siemba_form",
  "display_width" : null,
  "label" : "siemba form",
  "required" : false,
  "locked" : false,
  "children" : [ {
    "id" : "ad43975f-93e9-c2d0-607d-444ca2bd227b",
    "name" : "heading_h2",
    "display_width" : null,
    "label" : "heading h2",
    "required" : false,
    "locked" : false,
    "validation_regex" : "",
    "allow_new_line" : false,
    "show_emoji_picker" : false,
    "type" : "text",
    "default" : "Discover How the Siemba PTaaS Platform Can Work for You"
  }, {
    "id" : "4b9cfbab-755c-f1bd-02cf-84fabe5c8f7b",
    "name" : "text",
    "display_width" : null,
    "label" : "text",
    "required" : false,
    "locked" : false,
    "validation_regex" : "",
    "allow_new_line" : false,
    "show_emoji_picker" : false,
    "type" : "text",
    "default" : "Get a low-down on pentesting as a service, and how Siemba platform can deliver enterprise-grade PTaaS for your business."
  }, {
    "id" : "afe9d227-ea29-ef00-2221-adabd91ef4ed",
    "name" : "form_field",
    "display_width" : null,
    "label" : "Form",
    "required" : false,
    "locked" : false,
    "type" : "form",
    "default" : {
      "form_id" : "4f573d63-c44e-4b0b-80de-d65cd07bb7e9",
      "response_type" : "inline",
      "message" : "Thanks for submitting the form.",
      "gotowebinar_webinar_key" : null,
      "form_type" : "HUBSPOT"
    }
  } ],
  "tab" : "CONTENT",
  "expanded" : false,
  "type" : "group",
  "default" : {
    "heading_h2" : "Discover How the Siemba PTaaS Platform Can Work for You",
    "text" : "Get a low-down on pentesting as a service, and how Siemba platform can deliver enterprise-grade PTaaS for your business.",
    "form_field" : {
      "form_id" : "4f573d63-c44e-4b0b-80de-d65cd07bb7e9",
      "response_type" : "inline",
      "message" : "Thanks for submitting the form.",
      "gotowebinar_webinar_key" : null,
      "form_type" : "HUBSPOT"
    }
  }
} ]